…
Here, I computed the mean height, the maximum height, and the total number of observations (using the function `n()`). 
Let's say we wanted to get a quick sense for how tall starwars characters from different species are. To do that, we combine grouping with summarizing: 


```r
df.starwars %>% 
  group_by(species) %>% 
  summarize(height_mean = mean(height, na.rm = T))
```

```
## # A tibble: 38 x 2
##    species   height_mean
##    <chr>           <dbl>
##  1 <NA>              160
##  2 Aleena             79
##  3 Besalisk          198
##  4 Cerean            198
##  5 Chagrian          196
##  6 Clawdite          168
##  7 Droid             140
##  8 Dug               112
##  9 Ewok               88
## 10 Geonosian         183
## # ... with 28 more rows
```
I've first used `group_by()` to group our data frame by the different species, and then used `summarize()` to calculate the mean height of each species.

It would also be useful to know how many observations there are in each group. 


```r
df.starwars %>% 
  group_by(species) %>% 
  summarize(height_mean = mean(height, na.rm = T), 
            group_size = n()) %>% 
  arrange(desc(group_size)) 
```

```
## # A tibble: 38 x 3
##    species  height_mean group_size
##    <chr>          <dbl>      <int>
##  1 Human           177.         35
##  2 <NA>            160           5
##  3 Droid           140           5
##  4 Gungan          209.          3
##  5 Kaminoan        221           2
##  6 Mirialan        168           2
##  7 Twi'lek         179           2
##  8 Wookiee         231           2
##  9 Zabrak          173           2
## 10 Aleena           79           1
## # ... with 28 more rows
```
…
> __TIP__: Don't forget to `ungroup()` your data frame. Otherwise, any subsequent operations are applied per group. 

Sometimes, I want to run operations on each row, rather than per column. For example, let's say that I wanted each character's average combined height and mass. 

Let's see first what doesn't work: 


```r
df.starwars %>% 
  mutate(mean_height_mass = mean(c(height, mass), na.rm = T)) %>% 
  select(name, height, mass, mean_height_mass)
```

```
## # A tibble: 87 x 4
##    name               height  mass mean_height_mass
##    <chr>               <int> <dbl>            <dbl>
##  1 Luke Skywalker        172    77             142.
##  2 C-3PO                 167    75             142.
##  3 R2-D2                  96    32             142.
##  4 Darth Vader           202   136             142.
##  5 Leia Organa           150    49             142.
##  6 Owen Lars             178   120             142.
##  7 Beru Whitesun lars    165    75             142.
##  8 R5-D4                  97    32             142.
##  9 Biggs Darklighter     183    84             142.
## 10 Obi-Wan Kenobi        182    77             142.
## # ... with 77 more rows
```
…
```
## [1] 141.8886
```

To get the mean by row, we can either spell out the arithmetic


```r
df.starwars %>% 
  mutate(mean_height_mass = (height + mass) / 2) %>% # here, I've replaced the mean() function  
  select(name, height, mass, mean_height_mass)
```

```
## # A tibble: 87 x 4
##    name               height  mass mean_height_mass
##    <chr>               <int> <dbl>            <dbl>
##  1 Luke Skywalker        172    77            124. 
##  2 C-3PO                 167    75            121  
##  3 R2-D2                  96    32             64  
##  4 Darth Vader           202   136            169  
##  5 Leia Organa           150    49             99.5
##  6 Owen Lars             178   120            149  
##  7 Beru Whitesun lars    165    75            120  
##  8 R5-D4                  97    32             64.5
##  9 Biggs Darklighter     183    84            134. 
## 10 Obi-Wan Kenobi        182    77            130. 
## # ... with 77 more rows
```

or use the `rowwise()` helper function which is like `group_by()` but treats each row like a group: 


```r
df.starwars %>% 
  rowwise() %>% # now, each row is treated like a separate group 
  mutate(mean_height_mass = mean(c(height, mass), na.rm = T)) %>% 
  ungroup() %>% 
  select(name, height, mass, mean_height_mass)
```

```
## # A tibble: 87 x 4
##    name               height  mass mean_height_mass
##    <chr>               <int> <dbl>            <dbl>
##  1 Luke Skywalker        172    77            124. 
##  2 C-3PO                 167    75            121  
##  3 R2-D2                  96    32             64  
##  4 Darth Vader           202   136            169  
##  5 Leia Organa           150    49             99.5
##  6 Owen Lars             178   120            149  
##  7 Beru Whitesun lars    165    75            120  
##  8 R5-D4                  97    32             64.5
##  9 Biggs Darklighter     183    84            134. 
## 10 Obi-Wan Kenobi        182    77            130. 
## # ... with 77 more rows
```
…
