…
df.camp %>% print()
```

```
# A tibble: 10,000 x 3
     kid sport      height
   <int> <chr>       <dbl>
 1     1 basketball   165.
 2     2 basketball   163.
 3     3 basketball   191.
 4     4 chess        160.
 5     5 basketball   183.
 6     6 chess        164.
 7     7 chess        169.
 8     8 basketball   193.
 9     9 basketball   172.
10    10 basketball   177.
# … with 9,990 more rows
```
…
