…
### `distinct()`

`distinct()` shows all the distinct values for a character or factor column. 


```r
df.starwars %>% 
  distinct(name)
```

```
## # A tibble: 87 x 1
##    name              
##    <chr>             
##  1 Luke Skywalker    
##  2 C-3PO             
##  3 R2-D2             
##  4 Darth Vader       
##  5 Leia Organa       
##  6 Owen Lars         
##  7 Beru Whitesun lars
##  8 R5-D4             
##  9 Biggs Darklighter 
## 10 Obi-Wan Kenobi    
## # ... with 77 more rows
```
…
We use the functions in the package `dplyr` to manipulate our data. 

### filter() 

`filter()` lets us apply logical (and other) operators (see Table \@ref(tab:data-wrangling1-10)) to subset the data. Here, I've filtered out the male characters. 


```r
df.starwars %>% 
  filter(gender == 'male')
```

```
## # A tibble: 62 x 13
##    name  height  mass hair_color skin_color eye_color birth_year gender
##    <chr>  <int> <dbl> <chr>      <chr>      <chr>          <dbl> <chr> 
##  1 Luke~    172    77 blond      fair       blue            19   male  
##  2 Dart~    202   136 none       white      yellow          41.9 male  
##  3 Owen~    178   120 brown, gr~ light      blue            52   male  
##  4 Bigg~    183    84 black      light      brown           24   male  
##  5 Obi-~    182    77 auburn, w~ fair       blue-gray       57   male  
##  6 Anak~    188    84 blond      fair       blue            41.9 male  
##  7 Wilh~    180    NA auburn, g~ fair       blue            64   male  
##  8 Chew~    228   112 brown      unknown    blue           200   male  
##  9 Han ~    180    80 brown      fair       brown           29   male  
## 10 Gree~    173    74 <NA>       green      black           44   male  
## # ... with 52 more rows, and 5 more variables: homeworld <chr>,
## #   species <chr>, films <list>, vehicles <list>, starships <list>
```

We can combine multiple conditions in the same call. Here, I've filtered out male characters, whose height is greater than the median height (i.e. they are in the top 50 percentile), and whose mass was not `NA`. 


```r
df.starwars %>% 
  filter(gender == 'male',
         height > median(height, na.rm = T),
         !is.na(mass))
```

```
## # A tibble: 26 x 13
##    name  height  mass hair_color skin_color eye_color birth_year gender
##    <chr>  <int> <dbl> <chr>      <chr>      <chr>          <dbl> <chr> 
##  1 Dart~    202 136   none       white      yellow          41.9 male  
##  2 Bigg~    183  84   black      light      brown           24   male  
##  3 Obi-~    182  77   auburn, w~ fair       blue-gray       57   male  
##  4 Anak~    188  84   blond      fair       blue            41.9 male  
##  5 Chew~    228 112   brown      unknown    blue           200   male  
##  6 Boba~    183  78.2 black      fair       brown           31.5 male  
##  7 Bossk    190 113   none       green      red             53   male  
##  8 Qui-~    193  89   brown      fair       blue            92   male  
##  9 Nute~    191  90   none       mottled g~ red             NA   male  
## 10 Jar ~    196  66   none       orange     orange          52   male  
## # ... with 16 more rows, and 5 more variables: homeworld <chr>,
## #   species <chr>, films <list>, vehicles <list>, starships <list>
```
…
The starwars characters that have either a `"dark"` or a `"pale"` skin tone, or whose gender is `"hermaphrodite"`, and whose height is at least `170` cm. The `%in%` operator is useful when there are multiple options. Instead of `skin_color %in% c("dark", "pale")`, I could have also written `skin_color == "dark" | skin_color == "pale"` but this gets cumbersome as the number of options increases. 

### rename() 

`rename()` renames column names.


```r
df.starwars %>% 
  rename(person = name,
         mass_kg = mass)
```

```
## # A tibble: 87 x 13
##    person height mass_kg hair_color skin_color eye_color birth_year gender
##    <chr>   <int>   <dbl> <chr>      <chr>      <chr>          <dbl> <chr> 
##  1 Luke ~    172      77 blond      fair       blue            19   male  
##  2 C-3PO     167      75 <NA>       gold       yellow         112   <NA>  
##  3 R2-D2      96      32 <NA>       white, bl~ red             33   <NA>  
##  4 Darth~    202     136 none       white      yellow          41.9 male  
##  5 Leia ~    150      49 brown      light      brown           19   female
##  6 Owen ~    178     120 brown, gr~ light      blue            52   male  
##  7 Beru ~    165      75 brown      light      blue            47   female
##  8 R5-D4      97      32 <NA>       white, red red             NA   <NA>  
##  9 Biggs~    183      84 black      light      brown           24   male  
## 10 Obi-W~    182      77 auburn, w~ fair       blue-gray       57   male  
## # ... with 77 more rows, and 5 more variables: homeworld <chr>,
## #   species <chr>, films <list>, vehicles <list>, starships <list>
```

The new variable names goes on the LHS of the`=` sign, and the old name on the RHS.  

To rename all variables at the same time use `set_names()`: 


```r
df.starwars %>%
  set_names(letters[1:ncol(.)])  # renamed all variables to letters: a, b, ...
```

```
## # A tibble: 87 x 13
##    a          b     c d     e     f         g h     i     j     k     l    
##    <chr>  <int> <dbl> <chr> <chr> <chr> <dbl> <chr> <chr> <chr> <lis> <lis>
##  1 Luke ~   172    77 blond fair  blue   19   male  Tato~ Human <chr~ <chr~
##  2 C-3PO    167    75 <NA>  gold  yell~ 112   <NA>  Tato~ Droid <chr~ <chr~
##  3 R2-D2     96    32 <NA>  whit~ red    33   <NA>  Naboo Droid <chr~ <chr~
##  4 Darth~   202   136 none  white yell~  41.9 male  Tato~ Human <chr~ <chr~
##  5 Leia ~   150    49 brown light brown  19   fema~ Alde~ Human <chr~ <chr~
##  6 Owen ~   178   120 brow~ light blue   52   male  Tato~ Human <chr~ <chr~
##  7 Beru ~   165    75 brown light blue   47   fema~ Tato~ Human <chr~ <chr~
##  8 R5-D4     97    32 <NA>  whit~ red    NA   <NA>  Tato~ Droid <chr~ <chr~
##  9 Biggs~   183    84 black light brown  24   male  Tato~ Human <chr~ <chr~
## 10 Obi-W~   182    77 aubu~ fair  blue~  57   male  Stew~ Human <chr~ <chr~
## # ... with 77 more rows, and 1 more variable: m <list>
```

### select() 

`select()` allows us to select a subset of the columns in the data frame. 


```r
df.starwars %>% 
  select(name, height, mass)
```

```
## # A tibble: 87 x 3
##    name               height  mass
##    <chr>               <int> <dbl>
##  1 Luke Skywalker        172    77
##  2 C-3PO                 167    75
##  3 R2-D2                  96    32
##  4 Darth Vader           202   136
##  5 Leia Organa           150    49
##  6 Owen Lars             178   120
##  7 Beru Whitesun lars    165    75
##  8 R5-D4                  97    32
##  9 Biggs Darklighter     183    84
## 10 Obi-Wan Kenobi        182    77
## # ... with 77 more rows
```

We can select multiple columns using the `(from:to)` syntax: 


```r
df.starwars %>%  
  select(name:birth_year) # from name to birth_year
```

```
## # A tibble: 87 x 7
##    name           height  mass hair_color   skin_color eye_color birth_year
##    <chr>           <int> <dbl> <chr>        <chr>      <chr>          <dbl>
##  1 Luke Skywalker    172    77 blond        fair       blue            19  
##  2 C-3PO             167    75 <NA>         gold       yellow         112  
##  3 R2-D2              96    32 <NA>         white, bl~ red             33  
##  4 Darth Vader       202   136 none         white      yellow          41.9
##  5 Leia Organa       150    49 brown        light      brown           19  
##  6 Owen Lars         178   120 brown, grey  light      blue            52  
##  7 Beru Whitesun~    165    75 brown        light      blue            47  
##  8 R5-D4              97    32 <NA>         white, red red             NA  
##  9 Biggs Darklig~    183    84 black        light      brown           24  
## 10 Obi-Wan Kenobi    182    77 auburn, whi~ fair       blue-gray       57  
## # ... with 77 more rows
```

Or use a variable for column selection: 


```r
columns = c("name", "height", "species")

df.starwars %>% 
  select(one_of(columns)) # useful when using a variable for column selection
```

```
## # A tibble: 87 x 3
##    name               height species
##    <chr>               <int> <chr>  
##  1 Luke Skywalker        172 Human  
##  2 C-3PO                 167 Droid  
##  3 R2-D2                  96 Droid  
##  4 Darth Vader           202 Human  
##  5 Leia Organa           150 Human  
##  6 Owen Lars             178 Human  
##  7 Beru Whitesun lars    165 Human  
##  8 R5-D4                  97 Droid  
##  9 Biggs Darklighter     183 Human  
## 10 Obi-Wan Kenobi        182 Human  
## # ... with 77 more rows
```

We can also _deselect_ (multiple) columns:


```r
df.starwars %>% 
  select(-name, -(birth_year:vehicles))
```

```
## # A tibble: 87 x 6
##    height  mass hair_color    skin_color  eye_color starships
##     <int> <dbl> <chr>         <chr>       <chr>     <list>   
##  1    172    77 blond         fair        blue      <chr [2]>
##  2    167    75 <NA>          gold        yellow    <chr [0]>
##  3     96    32 <NA>          white, blue red       <chr [0]>
##  4    202   136 none          white       yellow    <chr [1]>
##  5    150    49 brown         light       brown     <chr [0]>
##  6    178   120 brown, grey   light       blue      <chr [0]>
##  7    165    75 brown         light       blue      <chr [0]>
##  8     97    32 <NA>          white, red  red       <chr [0]>
##  9    183    84 black         light       brown     <chr [1]>
## 10    182    77 auburn, white fair        blue-gray <chr [5]>
## # ... with 77 more rows
```

And select columns by partially matching the column name:


```r
df.starwars %>% 
  select(contains("_")) # every column that contains the character "_"
```

```
## # A tibble: 87 x 4
##    hair_color    skin_color  eye_color birth_year
##    <chr>         <chr>       <chr>          <dbl>
##  1 blond         fair        blue            19  
##  2 <NA>          gold        yellow         112  
##  3 <NA>          white, blue red             33  
##  4 none          white       yellow          41.9
##  5 brown         light       brown           19  
##  6 brown, grey   light       blue            52  
##  7 brown         light       blue            47  
##  8 <NA>          white, red  red             NA  
##  9 black         light       brown           24  
## 10 auburn, white fair        blue-gray       57  
## # ... with 77 more rows
```


```r
df.starwars %>% 
  select(starts_with("h")) # every column that starts with an "h"
```

```
## # A tibble: 87 x 3
##    height hair_color    homeworld
##     <int> <chr>         <chr>    
##  1    172 blond         Tatooine 
##  2    167 <NA>          Tatooine 
##  3     96 <NA>          Naboo    
##  4    202 none          Tatooine 
##  5    150 brown         Alderaan 
##  6    178 brown, grey   Tatooine 
##  7    165 brown         Tatooine 
##  8     97 <NA>          Tatooine 
##  9    183 black         Tatooine 
## 10    182 auburn, white Stewjon  
## # ... with 77 more rows
```

We can also use `select()` to reorder the columns: 


```r
# useful trick for changing the column order, now eye_color is at the beginning
df.starwars %>% 
  select(eye_color, everything())
```

```
## # A tibble: 87 x 13
##    eye_color name  height  mass hair_color skin_color birth_year gender
##    <chr>     <chr>  <int> <dbl> <chr>      <chr>           <dbl> <chr> 
##  1 blue      Luke~    172    77 blond      fair             19   male  
##  2 yellow    C-3PO    167    75 <NA>       gold            112   <NA>  
##  3 red       R2-D2     96    32 <NA>       white, bl~       33   <NA>  
##  4 yellow    Dart~    202   136 none       white            41.9 male  
##  5 brown     Leia~    150    49 brown      light            19   female
##  6 blue      Owen~    178   120 brown, gr~ light            52   male  
##  7 blue      Beru~    165    75 brown      light            47   female
##  8 red       R5-D4     97    32 <NA>       white, red       NA   <NA>  
##  9 brown     Bigg~    183    84 black      light            24   male  
## 10 blue-gray Obi-~    182    77 auburn, w~ fair             57   male  
## # ... with 77 more rows, and 5 more variables: homeworld <chr>,
## #   species <chr>, films <list>, vehicles <list>, starships <list>
```

Here, I've moved the `eye_color` column to the beginning of the data frame. `everything()` is a helper function which selects all the columns. 


```r
df.starwars %>% 
  select(-eye_color, everything(), eye_color) # move eye_color to the end
```

```
## # A tibble: 87 x 13
##    name  height  mass hair_color skin_color birth_year gender homeworld
##    <chr>  <int> <dbl> <chr>      <chr>           <dbl> <chr>  <chr>    
##  1 Luke~    172    77 blond      fair             19   male   Tatooine 
##  2 C-3PO    167    75 <NA>       gold            112   <NA>   Tatooine 
##  3 R2-D2     96    32 <NA>       white, bl~       33   <NA>   Naboo    
##  4 Dart~    202   136 none       white            41.9 male   Tatooine 
##  5 Leia~    150    49 brown      light            19   female Alderaan 
##  6 Owen~    178   120 brown, gr~ light            52   male   Tatooine 
##  7 Beru~    165    75 brown      light            47   female Tatooine 
##  8 R5-D4     97    32 <NA>       white, red       NA   <NA>   Tatooine 
##  9 Bigg~    183    84 black      light            24   male   Tatooine 
## 10 Obi-~    182    77 auburn, w~ fair             57   male   Stewjon  
## # ... with 77 more rows, and 5 more variables: species <chr>,
## #   films <list>, vehicles <list>, starships <list>, eye_color <chr>
```

Here, I've moved `eye_color` to the end. Note that I had to deselect it first. 

We can select columns based on their data type using `select_if()`. 


```r
df.starwars %>% 
  select_if(is.numeric) # just select numeric columns
```

```
## # A tibble: 87 x 3
##    height  mass birth_year
##     <int> <dbl>      <dbl>
##  1    172    77       19  
##  2    167    75      112  
##  3     96    32       33  
##  4    202   136       41.9
##  5    150    49       19  
##  6    178   120       52  
##  7    165    75       47  
##  8     97    32       NA  
##  9    183    84       24  
## 10    182    77       57  
## # ... with 77 more rows
```

The following selects all columns that are not numeric: 


```r
df.starwars %>% 
  select_if(~ !is.numeric(.)) # selects all columns that are not numeric
```

```
## # A tibble: 87 x 10
##    name  hair_color skin_color eye_color gender homeworld species films
##    <chr> <chr>      <chr>      <chr>     <chr>  <chr>     <chr>   <lis>
##  1 Luke~ blond      fair       blue      male   Tatooine  Human   <chr~
##  2 C-3PO <NA>       gold       yellow    <NA>   Tatooine  Droid   <chr~
##  3 R2-D2 <NA>       white, bl~ red       <NA>   Naboo     Droid   <chr~
##  4 Dart~ none       white      yellow    male   Tatooine  Human   <chr~
##  5 Leia~ brown      light      brown     female Alderaan  Human   <chr~
##  6 Owen~ brown, gr~ light      blue      male   Tatooine  Human   <chr~
##  7 Beru~ brown      light      blue      female Tatooine  Human   <chr~
##  8 R5-D4 <NA>       white, red red       <NA>   Tatooine  Droid   <chr~
##  9 Bigg~ black      light      brown     male   Tatooine  Human   <chr~
## 10 Obi-~ auburn, w~ fair       blue-gray male   Stewjon   Human   <chr~
## # ... with 77 more rows, and 2 more variables: vehicles <list>,
## #   starships <list>
```

Note that I used `~` here to indicate that I'm creating an anonymous function to check whether column type is numeric. A one-sided formula (expression beginning with `~`) is interpreted as `function(x)`, and wherever `x` would go in the function is represented by `.`.

So, I could write the same code like so: 


```r
df.starwars %>% 
  select_if(function(x) !is.numeric(x)) # selects all columns that are not numeric
```

```
## # A tibble: 87 x 10
##    name  hair_color skin_color eye_color gender homeworld species films
##    <chr> <chr>      <chr>      <chr>     <chr>  <chr>     <chr>   <lis>
##  1 Luke~ blond      fair       blue      male   Tatooine  Human   <chr~
##  2 C-3PO <NA>       gold       yellow    <NA>   Tatooine  Droid   <chr~
##  3 R2-D2 <NA>       white, bl~ red       <NA>   Naboo     Droid   <chr~
##  4 Dart~ none       white      yellow    male   Tatooine  Human   <chr~
##  5 Leia~ brown      light      brown     female Alderaan  Human   <chr~
##  6 Owen~ brown, gr~ light      blue      male   Tatooine  Human   <chr~
##  7 Beru~ brown      light      blue      female Tatooine  Human   <chr~
##  8 R5-D4 <NA>       white, red red       <NA>   Tatooine  Droid   <chr~
##  9 Bigg~ black      light      brown     male   Tatooine  Human   <chr~
## 10 Obi-~ auburn, w~ fair       blue-gray male   Stewjon   Human   <chr~
## # ... with 77 more rows, and 2 more variables: vehicles <list>,
## #   starships <list>
```

We can rename some of the columns using `select()` like so: 


```r
df.starwars %>% 
  select(person = name, height, mass_kg = mass)
```

```
## # A tibble: 87 x 3
##    person             height mass_kg
##    <chr>               <int>   <dbl>
##  1 Luke Skywalker        172      77
##  2 C-3PO                 167      75
##  3 R2-D2                  96      32
##  4 Darth Vader           202     136
##  5 Leia Organa           150      49
##  6 Owen Lars             178     120
##  7 Beru Whitesun lars    165      75
##  8 R5-D4                  97      32
##  9 Biggs Darklighter     183      84
## 10 Obi-Wan Kenobi        182      77
## # ... with 77 more rows
```
…
### mutate() 

`mutate()` is used to change exisitng columns or make new ones. 


```r
df.starwars %>% 
  mutate(height = height / 100, # to get height in meters
         bmi = mass / (height^2)) %>% # bmi = kg / (m^2)
  select(name, height, mass, bmi)
```

```
## # A tibble: 87 x 4
##    name               height  mass   bmi
##    <chr>               <dbl> <dbl> <dbl>
##  1 Luke Skywalker       1.72    77  26.0
##  2 C-3PO                1.67    75  26.9
##  3 R2-D2                0.96    32  34.7
##  4 Darth Vader          2.02   136  33.3
##  5 Leia Organa          1.5     49  21.8
##  6 Owen Lars            1.78   120  37.9
##  7 Beru Whitesun lars   1.65    75  27.5
##  8 R5-D4                0.97    32  34.0
##  9 Biggs Darklighter    1.83    84  25.1
## 10 Obi-Wan Kenobi       1.82    77  23.2
## # ... with 77 more rows
```

Here, I've calculated the bmi for the different starwars characters. I first mutated the height variable by going from cm to m, and then created the new column "bmi".

A useful helper function for `mutate()` is `ifelse()` which is a shorthand for the if-else control flow (Section \@ref(if-else)). Here is an example: 


```r
df.starwars %>% 
  mutate(height_categorical = ifelse(height > median(height, na.rm = T), 'tall', 'short')) %>% 
  select(name, contains("height"))
```

```
## # A tibble: 87 x 3
##    name               height height_categorical
##    <chr>               <int> <chr>             
##  1 Luke Skywalker        172 short             
##  2 C-3PO                 167 short             
##  3 R2-D2                  96 short             
##  4 Darth Vader           202 tall              
##  5 Leia Organa           150 short             
##  6 Owen Lars             178 short             
##  7 Beru Whitesun lars    165 short             
##  8 R5-D4                  97 short             
##  9 Biggs Darklighter     183 tall              
## 10 Obi-Wan Kenobi        182 tall              
## # ... with 77 more rows
```
…
