…
# set up simulation grid 
df.power = expand_grid(n = seq(10, 40, 2),
                       simulation = 1:n_simulations,
                       p = 0.75) %>%
  mutate(index = 1:n(),
         .before = n) # add an index column

df.power
```

```
# A tibble: 160 × 4
   index     n simulation     p
   <int> <dbl>      <int> <dbl>
 1     1    10          1  0.75
 2     2    10          2  0.75
 3     3    10          3  0.75
 4     4    10          4  0.75
 5     5    10          5  0.75
 6     6    10          6  0.75
 7     7    10          7  0.75
 8     8    10          8  0.75
 9     9    10          9  0.75
10    10    10         10  0.75
# ℹ 150 more rows
```
…
``` r
set.seed(1)

df.power = df.power %>% 
  group_by(index, n, simulation) %>% 
  mutate(response = rbinom(n = 1,
                           size = n,
                           prob = p))

df.power
```

```
# A tibble: 160 × 5
# Groups:   index, n, simulation [160]
   index     n simulation     p response
   <int> <dbl>      <int> <dbl>    <int>
 1     1    10          1  0.75        8
 2     2    10          2  0.75        8
 3     3    10          3  0.75        7
 4     4    10          4  0.75        6
 5     5    10          5  0.75        9
 6     6    10          6  0.75        6
 7     7    10          7  0.75        5
 8     8    10          8  0.75        7
 9     9    10          9  0.75        7
10    10    10         10  0.75        9
# ℹ 150 more rows
```
…
``` r
df.power = df.power %>% # generate random data
  mutate(fit = map2(.x = response,
                    .y = n,
                    .f = ~ binom.test(x = .x, # define formula
                                      n = .y,
                                      p = 0.5,
                                      alternative = "two.sided")))
df.power
```

```
# A tibble: 160 × 6
# Groups:   index, n, simulation [160]
   index     n simulation     p response fit    
   <int> <dbl>      <int> <dbl>    <int> <list> 
 1     1    10          1  0.75        8 <htest>
 2     2    10          2  0.75        8 <htest>
 3     3    10          3  0.75        7 <htest>
 4     4    10          4  0.75        6 <htest>
 5     5    10          5  0.75        9 <htest>
 6     6    10          6  0.75        6 <htest>
 7     7    10          7  0.75        5 <htest>
 8     8    10          8  0.75        7 <htest>
 9     9    10          9  0.75        7 <htest>
10    10    10         10  0.75        9 <htest>
# ℹ 150 more rows
```
…
```
Adding missing grouping variables: `n`
```

``` r
df.power
```

```
# A tibble: 160 × 4
# Groups:   index, n, simulation [160]
   index     n simulation p.value
   <int> <dbl>      <int>   <dbl>
 1     1    10          1  0.109 
 2     2    10          2  0.109 
 3     3    10          3  0.344 
 4     4    10          4  0.754 
 5     5    10          5  0.0215
 6     6    10          6  0.754 
 7     7    10          7  1     
 8     8    10          8  0.344 
 9     9    10          9  0.344 
10    10    10         10  0.0215
# ℹ 150 more rows
```
…
