Chapter 21 Generalized linear model | Psych 252: Statistical Methods for Behavioral and Social Sciences
…
To calculate the likelihood of the data for a given logistic model, we look at the actual response, and the probability of the predicted response, and then determine the likelihood of the observation assuming a Bernoulli process. To get the overall likelihood of the data, we then multiply the likelihood of each data point (or take the logs first and then the sum to get the log-likelihood).

This table illustrate the steps involved:

fit %>% 
  augment() %>% 
  clean_names() %>% 
  mutate(p = inv.logit(fitted)) %>% 
  select(response, p) %>% 
  mutate(p_response = ifelse(response == 1, p, 1-p),
         log_p = log(p_response)) %>% 
  rename(`p(Y = 1)` = p, `p(Y = response)` = p_response,
         `log(p(Y = response))` = log_p)

# A tibble: 1,000 × 4
   response `p(Y = 1)` `p(Y = response)` `log(p(Y = response))`
      <int>      <dbl>             <dbl>                  <dbl>
 1        1      0.344             0.344                 -1.07 
 2        0      0.527             0.473                 -0.749
 3        1      0.302             0.302                 -1.20 
 4        1      0.805             0.805                 -0.217
 5        1      0.561             0.561                 -0.579
 6        0      0.305             0.695                 -0.364
 7        1      0.596             0.596                 -0.517
 8        1      0.651             0.651                 -0.429
 9        1      0.616             0.616                 -0.484
10        0      0.414             0.586                 -0.535
# … with 990 more rows
…
