Chapter 18 Linear mixed effects models 2 | Psych 252: Statistical Methods for Behavioral and Social Sciences
…
# generate the data 
df.mixed = tibble(participant = rep(1:sample_size, 2),
                  condition = rep(0:1, each = sample_size)) %>% 
  group_by(participant) %>% 
  mutate(intercepts = rnorm(n = 1, sd = sd_participant)) %>% 
  ungroup() %>% 
  mutate(value = b0 + b1 * condition + intercepts + rnorm(n(), sd = sd_residual)) %>% 
  arrange(participant, condition)

df.mixed

# A tibble: 200 × 4
   participant condition intercepts   value
         <int>     <int>      <dbl>   <dbl>
 1           1         0    -0.313   0.0664
 2           1         1    -0.313   3.10  
 3           2         0     0.0918  1.13  
 4           2         1     0.0918  4.78  
 5           3         0    -0.418  -0.329 
 6           3         1    -0.418   4.17  
 7           4         0     0.798   1.96  
 8           4         1     0.798   3.47  
 9           5         0     0.165   0.510 
10           5         1     0.165   0.880 
# ℹ 190 more rows
…
