Chapter 16 Model comparison | Psych 252: Statistical Methods for Behavioral and Social Sciences
…
# calculate the proportion with which the H0 would be rejected (= power)

df.pwr %>% 
  summarize(power = sum(p_value < .05) /n())

# A tibble: 100 x 2
   n_simulations power
           <int> <dbl>
 1             1     0
 2             2     0
 3             3     0
 4             4     0
 5             5     1
 6             6     0
 7             7     0
 8             8     0
 9             9     0
10            10     1
# … with 90 more rows
…
