Chapter 15 Power analysis | Psych 252: Statistical Methods for Behavioral and Social Sciences
…
# make reproducible 
set.seed(1)

# number of simulations
n_simulations = 10

# set up simulation grid 
df.power = crossing(n = seq(10, 40, 2),
                    simulation = 1:n_simulations,
                    p = 0.75) %>%
  mutate(index = 1:n()) # add an index column

df.power

## # A tibble: 160 x 4
##        n simulation     p index
##    <dbl>      <int> <dbl> <int>
##  1    10          1  0.75     1
##  2    10          2  0.75     2
##  3    10          3  0.75     3
##  4    10          4  0.75     4
##  5    10          5  0.75     5
##  6    10          6  0.75     6
##  7    10          7  0.75     7
##  8    10          8  0.75     8
##  9    10          9  0.75     9
## 10    10         10  0.75    10
## # … with 150 more rows

The crossing() function creates a data frame that contains all the combinations of the variables.

Now, let’s generate data according to our hypothesis.

df.power = df.power %>% 
  group_by(index, n, simulation) %>% 
  mutate(response = rbinom(n = n(), size = n, prob = p))

df.power

## # A tibble: 160 x 5
## # Groups:   index, n, simulation [160]
##        n simulation     p index response
##    <dbl>      <int> <dbl> <int>    <int>
##  1    10          1  0.75     1        8
##  2    10          2  0.75     2        8
##  3    10          3  0.75     3        7
##  4    10          4  0.75     4        6
##  5    10          5  0.75     5        9
##  6    10          6  0.75     6        6
##  7    10          7  0.75     7        5
##  8    10          8  0.75     8        7
##  9    10          9  0.75     9        7
## 10    10         10  0.75    10        9
## # … with 150 more rows

The response variable now contains samples from the sample size n according to the probability specified in p. Now it’s time for group_by() and nest() because we want to calculate the p-value for observing this reponse if in fact the null hypothesis was true (i.e. p = 0.5).

df.power = df.power %>% # generate random data
  group_by(index, simulation, p) %>% 
  nest() %>% # put data in list column
  mutate(fit = map(data, 
                   ~ binom.test(x = .$response, # define formula
                          n = .$n,
                          p = 0.5,
                          alternative = "two.sided")))
df.power

## # A tibble: 160 x 5
## # Groups:   simulation, p, index [160]
##    simulation     p index data             fit    
##         <int> <dbl> <int> <list>           <list> 
##  1          1  0.75     1 <tibble [1 × 2]> <htest>
##  2          2  0.75     2 <tibble [1 × 2]> <htest>
##  3          3  0.75     3 <tibble [1 × 2]> <htest>
##  4          4  0.75     4 <tibble [1 × 2]> <htest>
##  5          5  0.75     5 <tibble [1 × 2]> <htest>
##  6          6  0.75     6 <tibble [1 × 2]> <htest>
##  7          7  0.75     7 <tibble [1 × 2]> <htest>
##  8          8  0.75     8 <tibble [1 × 2]> <htest>
##  9          9  0.75     9 <tibble [1 × 2]> <htest>
## 10         10  0.75    10 <tibble [1 × 2]> <htest>
## # … with 150 more rows

Now that we’ve fitted a bunch of binomial models, we only need to get at the p-values. Again, we can use the tidy() function from the broom package for help, like so:

df.power = df.power %>% 
  mutate(coef = map(fit, tidy)) %>% 
  select(simulation, p, index, coef) %>% 
  unnest(cols = coef) %>% 
  rename(n = parameter)
df.power

## # A tibble: 160 x 11
## # Groups:   simulation, p, index [160]
##    simulation     p index estimate statistic p.value     n conf.low conf.high
##         <int> <dbl> <int>    <dbl>     <dbl>   <dbl> <dbl>    <dbl>     <dbl>
##  1          1  0.75     1      0.8         8  0.109     10    0.444     0.975
##  2          2  0.75     2      0.8         8  0.109     10    0.444     0.975
##  3          3  0.75     3      0.7         7  0.344     10    0.348     0.933
##  4          4  0.75     4      0.6         6  0.754     10    0.262     0.878
##  5          5  0.75     5      0.9         9  0.0215    10    0.555     0.997
##  6          6  0.75     6      0.6         6  0.754     10    0.262     0.878
##  7          7  0.75     7      0.5         5  1         10    0.187     0.813
##  8          8  0.75     8      0.7         7  0.344     10    0.348     0.933
##  9          9  0.75     9      0.7         7  0.344     10    0.348     0.933
## 10         10  0.75    10      0.9         9  0.0215    10    0.555     0.997
## # … with 150 more rows, and 2 more variables: method <chr>, alternative <chr>
…
