Chapter 7 Simulation 1 | Psych 252: Statistical Methods for Behavioral and Social Sciences
…
# data frame with the kids
df.camp = tibble(kid = 1:tmp.nkids,
                 sport = sample(c("chess", "basketball"),
                                size = tmp.nkids,
                                replace = T,
                                prob = c(prior_chess, prior_basketball))) %>% 
  rowwise() %>% 
  mutate(height = ifelse(test = sport == "chess",
                         yes = rnorm(., mean = mean_chess, sd = sd_chess),
                         no = rnorm(., mean = mean_basketball, sd = sd_basketball))) %>% 
  ungroup

df.camp %>% print()

## # A tibble: 10,000 x 3
##      kid sport      height
##    <int> <chr>       <dbl>
##  1     1 basketball   165.
##  2     2 basketball   163.
##  3     3 basketball   191.
##  4     4 chess        160.
##  5     5 basketball   183.
##  6     6 chess        164.
##  7     7 chess        169.
##  8     8 basketball   193.
##  9     9 basketball   172.
## 10    10 basketball   177.
## # … with 9,990 more rows
…
