Chapter 8 Simulation 2 | Psych 252: Statistical Methods for Behavioral and Social Sciences
…
df.ttest = tibble(simulation = 1:n_simulations) %>% 
  mutate(sample1 = replicate(n = n_simulations,
                             expr = fun.normal_sample_mean(sample_size, mean, sd)),
         sample2 = replicate(n = n_simulations, 
                             expr = fun.normal_sample_mean(sample_size, mean, sd))) %>% 
  mutate(difference = sample1 - sample2,
         # assuming the same standard deviation in each sample
         tstatistic = difference / sqrt(sd^2 * (1/sample_size + 1/sample_size)))

df.ttest

# A tibble: 1,000 × 5
   simulation sample1 sample2 difference tstatistic
        <int>   <dbl>   <dbl>      <dbl>      <dbl>
 1          1    5.22    4.99     0.225      0.796 
 2          2    4.92    5.06    -0.132     -0.467 
 3          3    5.06    5.40    -0.340     -1.20  
 4          4    5.10    4.97     0.132      0.468 
 5          5    4.92    4.75     0.173      0.613 
 6          6    4.91    4.99    -0.0787    -0.278 
 7          7    4.60    5.11    -0.513     -1.82  
 8          8    5.00    5.01    -0.0113    -0.0401
 9          9    5.02    5.10    -0.0773    -0.273 
10         10    5.01    4.98     0.0267     0.0945
# ℹ 990 more rows
…
